{
  "count": 275,
  "next": "https://ll.thespacedevs.com/2.2.0/launch/?format=json&limit=1&lsp__ids=121&mode=detailed&net__lt=2023-09-03T12%3A22%3A36Z&offset=1&ordering=-net",
  "previous": null,
  "results": [
    {
      "id": "9248a1d0-393f-469a-b9c6-19470247e6fd",
      "url": "https://ll.thespacedevs.com/2.2.0/launch/9248a1d0-393f-469a-b9c6-19470247e6fd/?format=json",
      "slug": "falcon-9-block-5-sda-tranche-0b",
      "flightclub_url": "https://flightclub.io/result?llId=9248a1d0-393f-469a-b9c6-19470247e6fd",
      "r_spacex_api_id": null,
      "name": "Falcon 9 Block 5 | SDA Tranche 0B",
      "status": {
        "id": 3,
        "name": "Launch Successful",
        "abbrev": "Success",
        "description": "The launch vehicle successfully inserted its payload(s) into the target orbit(s)."
      },
      "last_updated": "2024-03-05T17:57:18Z",
      "updates": [
        {
          "id": 5058,
          "profile_image": "https://thespacedevs-prod.nyc3.digitaloceanspaces.com/media/profile_images/arnaud2520muller_profile_20230607144351.jpg",
          "comment": "Successful launch",
          "info_url": "https://twitter.com/spaceflightnow/status/1698003887104356653",
          "created_by": "Nosu",
          "created_on": "2023-09-02T16:07:31Z"
        },
        {
          "id": 5057,
          "profile_image": "https://thespacedevs-prod.nyc3.digitaloceanspaces.com/media/profile_images/arnaud2520muller_profile_20230607144351.jpg",
          "comment": "Liftoff",
          "info_url": "https://www.youtube.com/watch?v=JBeJVN-0t2I",
          "created_by": "Nosu",
          "created_on": "2023-09-02T14:25:12Z"
        },
        {
          "id": 5056,
          "profile_image": "https://thespacedevs-prod.nyc3.digitaloceanspaces.com/media/profile_images/ll2_profile_20230311134739.png",
          "comment": "Livestream has started",
          "info_url": "https://www.youtube.com/watch?v=JBeJVN-0t2I",
          "created_by": "LL2",
          "created_on": "2023-09-02T14:10:54Z"
        },
        {
          "id": 5046,
          "profile_image": "https://thespacedevs-prod.nyc3.digitaloceanspaces.com/media/profile_images/arnaud2520muller_profile_20230607144351.jpg",
          "comment": "Setting GO",
          "info_url": "https://www.spacex.com/launches/mission/?missionId=SDA-Tranche0B",
          "created_by": "Nosu",
          "created_on": "2023-09-01T14:50:40Z"
        },
        {
          "id": 5045,
          "profile_image": "https://thespacedevs-prod.nyc3.digitaloceanspaces.com/media/profile_images/arnaud2520muller_profile_20230607144351.jpg",
          "comment": "Launch abort, moving to the next window 24 hours later and setting TBC pending confirmation by SpaceX.",
          "info_url": "https://www.youtube.com/watch?v=I847NstyRzk",
          "created_by": "Nosu",
          "created_on": "2023-09-01T14:09:26Z"
        },
        {
          "id": 5039,
          "profile_image": "https://thespacedevs-prod.nyc3.digitaloceanspaces.com/media/profile_images/cosmic2520penguin_profile_20210817212020.png",
          "comment": "GO for launch.",
          "info_url": "https://www.spacex.com/launches/mission/?missionId=SDA-Tranche0B",
          "created_by": "Cosmic_Penguin",
          "created_on": "2023-09-01T06:00:55Z"
        },
        {
          "id": 5031,
          "profile_image": "https://thespacedevs-prod.nyc3.digitaloceanspaces.com/media/profile_images/cosmic2520penguin_profile_20210817212020.png",
          "comment": "Launch scrubbed for the day due to problem with engine no. 4 on first stage.",
          "info_url": "https://twitter.com/alexphysics13/status/1697256812482007277",
          "created_by": "Cosmic_Penguin",
          "created_on": "2023-08-31T14:43:19Z"
        },
        {
          "id": 5030,
          "profile_image": "https://thespacedevs-prod.nyc3.digitaloceanspaces.com/media/profile_images/lucas2520stauder_profile_20230526163835.jpg",
          "comment": "New T-0 of 15:25 UTC",
          "info_url": "https://twitter.com/SpaceX/status/1697249169872920694?s=20",
          "created_by": "hitura-nobad",
          "created_on": "2023-08-31T14:08:50Z"
        },
        {
          "id": 5028,
          "profile_image": "https://thespacedevs-prod.nyc3.digitaloceanspaces.com/media/profile_images/swgustav_profile_20210218062738.jpg",
          "comment": "Adjusting T-0",
          "info_url": "https://twitter.com/SpaceX/status/1697240624125338075",
          "created_by": "SwGustav",
          "created_on": "2023-08-31T13:46:45Z"
        },
        {
          "id": 5022,
          "profile_image": "https://thespacedevs-prod.nyc3.digitaloceanspaces.com/media/profile_images/lucas2520stauder_profile_20230526163835.jpg",
          "comment": "Setting GO",
          "info_url": "https://twitter.com/SpaceX/status/1696966506805080462",
          "created_by": "hitura-nobad",
          "created_on": "2023-08-30T19:29:47Z"
        },
        {
          "id": 4998,
          "profile_image": "https://thespacedevs-prod.nyc3.digitaloceanspaces.com/media/profile_images/arnaud2520muller_profile_20230607144351.jpg",
          "comment": "Delayed to August 31, adding launch window",
          "info_url": "https://www.fly.faa.gov/adv/adv_spt.jsp",
          "created_by": "Nosu",
          "created_on": "2023-08-26T07:46:01Z"
        },
        {
          "id": 4946,
          "profile_image": "https://thespacedevs-prod.nyc3.digitaloceanspaces.com/media/profile_images/lucas2520stauder_profile_20230526163835.jpg",
          "comment": "NET 30th August",
          "info_url": "https://spaceflightnow.com/launch-schedule/",
          "created_by": "hitura-nobad",
          "created_on": "2023-08-21T05:24:18Z"
        },
        {
          "id": 4666,
          "profile_image": "https://thespacedevs-prod.nyc3.digitaloceanspaces.com/media/profile_images/arnaud2520muller_profile_20230607144351.jpg",
          "comment": "NET August",
          "info_url": "https://aviationweek.com/defense-space/space/sda-tranche-0-link-16-transmission-october-second-launch-august",
          "created_by": "Nosu",
          "created_on": "2023-07-24T13:22:19Z"
        },
        {
          "id": 4424,
          "profile_image": "https://thespacedevs-prod.nyc3.digitaloceanspaces.com/media/profile_images/cosmic2520penguin_profile_20210817212020.png",
          "comment": "NET late July 2023.",
          "info_url": "https://spacenews.com/space-development-agencys-missile-warning-satellites-transmit-first-images/",
          "created_by": "Cosmic_Penguin",
          "created_on": "2023-06-19T18:23:52Z"
        },
        {
          "id": 2989,
          "profile_image": "https://thespacedevs-prod.nyc3.digitaloceanspaces.com/media/profile_images/swgustav_profile_20210218062738.jpg",
          "comment": "Adding the launch",
          "info_url": "https://spacenews.com/space-development-agencys-first-launch-slips-to-march-due-to-satellite-glitch/",
          "created_by": "SwGustav",
          "created_on": "2022-12-10T00:46:18Z"
        }
      ],
      "net": "2023-09-02T14:25:00Z",
      "net_precision": {
        "id": 1,
        "name": "Minute",
        "abbrev": "MIN",
        "description": "The T-0 is accurate to the minute."
      },
      "window_end": "2023-09-02T14:25:00Z",
      "window_start": "2023-09-02T14:25:00Z",
      "probability": null,
      "weather_concerns": null,
      "holdreason": "",
      "failreason": "",
      "hashtag": null,
      "launch_service_provider": {
        "id": 121,
        "url": "https://ll.thespacedevs.com/2.2.0/agencies/121/?format=json",
        "name": "SpaceX",
        "featured": true,
        "type": "Commercial",
        "country_code": "USA",
        "abbrev": "SpX",
        "description": "Space Exploration Technologies Corp., known as SpaceX, is an American aerospace manufacturer and space transport services company headquartered in Hawthorne, California. It was founded in 2002 by entrepreneur Elon Musk with the goal of reducing space transportation costs and enabling the colonization of Mars. SpaceX operates from many pads, on the East Coast of the US they operate from SLC-40 at Cape Canaveral Space Force Station and historic LC-39A at Kennedy Space Center. They also operate from SLC-4E at Vandenberg Space Force Base, California, usually for polar launches. Another launch site is being developed at Boca Chica, Texas.",
        "administrator": "CEO: Elon Musk",
        "founding_year": "2002",
        "launchers": "Falcon | Starship",
        "spacecraft": "Dragon",
        "launch_library_url": null,
        "total_launch_count": 398,
        "consecutive_successful_launches": 15,
        "successful_launches": 386,
        "failed_launches": 12,
        "pending_launches": 116,
        "consecutive_successful_landings": 2,
        "successful_landings": 349,
        "failed_landings": 25,
        "attempted_landings": 373,
        "info_url": "http://www.spacex.com/",
        "wiki_url": "http://en.wikipedia.org/wiki/SpaceX",
        "logo_url": "https://thespacedevs-prod.nyc3.digitaloceanspaces.com/media/images/spacex_logo_20220826094919.png",
        "image_url": "https://thespacedevs-prod.nyc3.digitaloceanspaces.com/media/images/spacex_image_20190207032501.jpeg",
        "nation_url": "https://thespacedevs-prod.nyc3.digitaloceanspaces.com/media/images/spacex_nation_20230531064544.jpg"
      },
      "rocket": {
        "id": 7730,
        "configuration": {
          "id": 164,
          "url": "https://ll.thespacedevs.com/2.2.0/config/launcher/164/?format=json",
          "name": "Falcon 9",
          "active": true,
          "reusable": true,
          "description": "Falcon 9 is a two-stage rocket designed and manufactured by SpaceX for the reliable and safe transport of satellites and the Dragon spacecraft into orbit. The Block 5 variant is the fifth major interval aimed at improving upon the ability for rapid reusability.",
          "family": "Falcon",
          "full_name": "Falcon 9 Block 5",
          "manufacturer": {
            "id": 121,
            "url": "https://ll.thespacedevs.com/2.2.0/agencies/121/?format=json",
            "name": "SpaceX",
            "featured": true,
            "type": "Commercial",
            "country_code": "USA",
            "abbrev": "SpX",
            "description": "Space Exploration Technologies Corp., known as SpaceX, is an American aerospace manufacturer and space transport services company headquartered in Hawthorne, California. It was founded in 2002 by entrepreneur Elon Musk with the goal of reducing space transportation costs and enabling the colonization of Mars. SpaceX operates from many pads, on the East Coast of the US they operate from SLC-40 at Cape Canaveral Space Force Station and historic LC-39A at Kennedy Space Center. They also operate from SLC-4E at Vandenberg Space Force Base, California, usually for polar launches. Another launch site is being developed at Boca Chica, Texas.",
            "administrator": "CEO: Elon Musk",
            "founding_year": "2002",
            "launchers": "Falcon | Starship",
            "spacecraft": "Dragon",
            "launch_library_url": null,
            "total_launch_count": 398,
            "consecutive_successful_launches": 15,
            "successful_launches": 386,
            "failed_launches": 12,
            "pending_launches": 116,
            "consecutive_successful_landings": 2,
            "successful_landings": 349,
            "failed_landings": 25,
            "attempted_landings": 373,
            "info_url": "http://www.spacex.com/",
            "wiki_url": "http://en.wikipedia.org/wiki/SpaceX",
            "logo_url": "https://thespacedevs-prod.nyc3.digitaloceanspaces.com/media/images/spacex_logo_20220826094919.png",
            "image_url": "https://thespacedevs-prod.nyc3.digitaloceanspaces.com/media/images/spacex_image_20190207032501.jpeg",
            "nation_url": "https://thespacedevs-prod.nyc3.digitaloceanspaces.com/media/images/spacex_nation_20230531064544.jpg"
          },
          "program": [
            {
              "id": 11,
              "url": "https://ll.thespacedevs.com/2.2.0/program/11/?format=json",
              "name": "Commercial Resupply Services",
              "description": "Commercial Resupply Services (CRS) are a series of flights awarded by NASA for the delivery of cargo and supplies to the International Space Station.The first CRS contracts were signed in 2008 and awarded $1.6 billion to SpaceX for twelve cargo Dragon and $1.9 billion to Orbital Sciences for eight Cygnus flights, covering deliveries to 2016. The Falcon 9 and Antares rockets were also developed under the CRS program to deliver cargo spacecraft to the ISS.",
              "agencies": [
                {
                  "id": 44,
                  "url": "https://ll.thespacedevs.com/2.2.0/agencies/44/?format=json",
                  "name": "National Aeronautics and Space Administration",
                  "type": "Government"
                },
                {
                  "id": 257,
                  "url": "https://ll.thespacedevs.com/2.2.0/agencies/257/?format=json",
                  "name": "Northrop Grumman Space Systems",
                  "type": "Commercial"
                },
                {
                  "id": 1020,
                  "url": "https://ll.thespacedevs.com/2.2.0/agencies/1020/?format=json",
                  "name": "Sierra Nevada Corporation",
                  "type": "Commercial"
                },
                {
                  "id": 121,
                  "url": "https://ll.thespacedevs.com/2.2.0/agencies/121/?format=json",
                  "name": "SpaceX",
                  "type": "Commercial"
                }
              ],
              "image_url": "https://thespacedevs-prod.nyc3.digitaloceanspaces.com/media/images/commercial2520_program_20201129212219.png",
              "start_date": "2008-12-23T00:00:00Z",
              "end_date": null,
              "info_url": null,
              "wiki_url": "https://en.wikipedia.org/wiki/Commercial_Resupply_Services#Commercial_Resupply_Services",
              "mission_patches": [],
              "type": {
                "id": 2,
                "name": "Human Spaceflight"
              }
            },
            {
              "id": 5,
              "url": "https://ll.thespacedevs.com/2.2.0/program/5/?format=json",
              "name": "Commercial Crew Program",
              "description": "The Commercial Crew Program (CCP) is a human spaceflight program operated by NASA, in association with American aerospace manufacturers Boeing and SpaceX. The program conducts rotations between the expeditions of the International Space Station program, transporting crews to and from the International Space Station (ISS) aboard Boeing Starliner and SpaceX Crew Dragon capsules, in the first crewed orbital spaceflights operated by private companies.",
              "agencies": [
                {
                  "id": 80,
                  "url": "https://ll.thespacedevs.com/2.2.0/agencies/80/?format=json",
                  "name": "Boeing",
                  "type": "Commercial"
                },
                {
                  "id": 44,
                  "url": "https://ll.thespacedevs.com/2.2.0/agencies/44/?format=json",
                  "name": "National Aeronautics and Space Administration",
                  "type": "Government"
                },
                {
                  "id": 121,
                  "url": "https://ll.thespacedevs.com/2.2.0/agencies/121/?format=json",
                  "name": "SpaceX",
                  "type": "Commercial"
                }
              ],
              "image_url": "https://thespacedevs-prod.nyc3.digitaloceanspaces.com/media/images/commercial2520_program_20200820201209.png",
              "start_date": "2011-04-18T00:00:00Z",
              "end_date": null,
              "info_url": "https://www.nasa.gov/exploration/commercial/crew/index.html",
              "wiki_url": "https://en.wikipedia.org/wiki/Commercial_Crew_Program",
              "mission_patches": [],
              "type": {
                "id": 2,
                "name": "Human Spaceflight"
              }
            }
          ],
          "variant": "Block 5",
          "alias": "",
          "min_stage": 1,
          "max_stage": 2,
          "length": 70,
          "diameter": 3.65,
          "maiden_flight": "2018-05-11",
          "launch_cost": "52000000",
          "launch_mass": 549,
          "leo_capacity": 22800,
          "gto_capacity": 8300,
          "to_thrust": 7607,
          "apogee": 200,
          "vehicle_range": null,
          "image_url": "https://thespacedevs-prod.nyc3.digitaloceanspaces.com/media/images/falcon_9_image_20230807133459.jpeg",
          "info_url": "https://www.spacex.com/vehicles/falcon-9/",
          "wiki_url": "https://en.wikipedia.org/wiki/Falcon_9",
          "total_launch_count": 313,
          "consecutive_successful_launches": 15,
          "successful_launches": 312,
          "failed_launches": 1,
          "pending_launches": 106,
          "attempted_landings": 307,
          "successful_landings": 302,
          "failed_landings": 5,
          "consecutive_successful_landings": 2
        },
        "launcher_stage": [
          {
            "id": 352,
            "type": "Core",
            "reused": true,
            "launcher_flight_number": 13,
            "launcher": {
              "id": 84,
              "url": "https://ll.thespacedevs.com/2.2.0/launcher/84/?format=json",
              "details": "Notable launches include Sentinel-6 and Dart.",
              "flight_proven": true,
              "serial_number": "B1063",
              "status": "active",
              "image_url": "https://thespacedevs-prod.nyc3.digitaloceanspaces.com/media/images/84_image_20201122121517.jpeg",
              "successful_landings": 19,
              "attempted_landings": 19,
              "flights": 19,
              "last_launch_date": "2024-07-12T02:35:00Z",
              "first_launch_date": "2020-11-21T17:17:08Z"
            },
            "landing": {
              "id": 1178,
              "attempt": true,
              "success": true,
              "description": "B1063 has landed back at the launch site after this flight.",
              "downrange_distance": 0.4,
              "location": {
                "id": 7,
                "name": "Landing Zone 4",
                "abbrev": "LZ-4",
                "description": "LZ at Vandenberg",
                "location": {
                  "id": 11,
                  "url": "https://ll.thespacedevs.com/2.2.0/location/11/?format=json",
                  "name": "Vandenberg SFB, CA, USA",
                  "country_code": "USA",
                  "description": "",
                  "map_image": "https://thespacedevs-prod.nyc3.digitaloceanspaces.com/media/map_images/location_11_20200803142416.jpg",
                  "timezone_name": "America/Los_Angeles",
                  "total_launch_count": 768,
                  "total_landing_count": 20
                },
                "successful_landings": 20
              },
              "type": {
                "id": 2,
                "name": "Return to Launch Site",
                "abbrev": "RTLS",
                "description": "A return to launch site usually means that after stage separation the booster flips and does a burn back towards the launch site, landing near where it initially launched from."
              }
            },
            "previous_flight_date": "2023-07-07T19:29:50Z",
            "turn_around_time_days": 56,
            "previous_flight": {
              "id": "5d3e11d7-5d13-4c8c-b94a-c73da97c39a5",
              "name": "Falcon 9 Block 5 | Starlink Group 5-13"
            }
          }
        ],
        "spacecraft_stage": null
      },
      "mission": {
        "id": 6247,
        "name": "SDA Tranche 0B",
        "description": "Second mission launched by the Space Development Agency for the Tranche 0 Transport Layer.",
        "launch_designator": null,
        "type": "Government/Top Secret",
        "orbit": {
          "id": 13,
          "name": "Polar Orbit",
          "abbrev": "PO"
        },
        "agencies": [
          {
            "id": 1056,
            "url": "https://ll.thespacedevs.com/2.2.0/agencies/1056/?format=json",
            "name": "Space Development Agency",
            "featured": false,
            "type": "Government",
            "country_code": "USA",
            "abbrev": "SDA",
            "description": "The Space Development Agency (SDA) is a United States Space Force direct-reporting unit tasked with deploying disruptive space technology. A primary focus is space-based missile defense using large global satellite constellations made up of industry-procured low-cost satellites.",
            "administrator": "Director: Derek Tournear",
            "founding_year": "2019",
            "launchers": "",
            "spacecraft": "",
            "launch_library_url": null,
            "total_launch_count": 0,
            "consecutive_successful_launches": 0,
            "successful_launches": 0,
            "failed_launches": 0,
            "pending_launches": 0,
            "consecutive_successful_landings": 0,
            "successful_landings": 0,
            "failed_landings": 0,
            "attempted_landings": 0,
            "info_url": "https://www.sda.mil/",
            "wiki_url": "https://en.wikipedia.org/wiki/Space_Development_Agency",
            "logo_url": "https://thespacedevs-prod.nyc3.digitaloceanspaces.com/media/images/space2520development2520agency_logo_20230806170522.jpg",
            "image_url": null,
            "nation_url": null
          }
        ],
        "info_urls": [],
        "vid_urls": []
      },
      "pad": {
        "id": 16,
        "url": "https://ll.thespacedevs.com/2.2.0/pad/16/?format=json",
        "agency_id": null,
        "name": "Space Launch Complex 4E",
        "description": "Space Launch Complex 4 East (SLC-4E) is a launch site at Vandenberg Space Force Base, California, U.S.\r\n\r\nThe pad was previously used by Atlas and Titan rockets between 1963 and 2005. The pad was built for use by Atlas-Agena rockets, but was later rebuilt to handle Titan rockets.",
        "info_url": null,
        "wiki_url": "https://en.wikipedia.org/wiki/Vandenberg_Space_Launch_Complex_4#SLC-4E",
        "map_url": "https://www.google.com/maps?q=34.632,-120.611",
        "latitude": "34.632",
        "longitude": "-120.611",
        "location": {
          "id": 11,
          "url": "https://ll.thespacedevs.com/2.2.0/location/11/?format=json",
          "name": "Vandenberg SFB, CA, USA",
          "country_code": "USA",
          "description": "",
          "map_image": "https://thespacedevs-prod.nyc3.digitaloceanspaces.com/media/map_images/location_11_20200803142416.jpg",
          "timezone_name": "America/Los_Angeles",
          "total_launch_count": 768,
          "total_landing_count": 20
        },
        "country_code": "USA",
        "map_image": "https://thespacedevs-prod.nyc3.digitaloceanspaces.com/media/map_images/pad_16_20200803143532.jpg",
        "total_launch_count": 156,
        "orbital_launch_attempt_count": 156
      },
      "infoURLs": [
        {
          "priority": 10,
          "source": "www.spacex.com",
          "title": "SpaceX",
          "description": "SpaceX designs, manufactures and launches advanced rockets and spacecraft. The company was founded in 2002 to revolutionize space technology, with the ultimate goal of enabling people to live on other planets.",
          "feature_image": null,
          "url": "https://www.spacex.com/launches/mission/?missionId=SDA-Tranche0B",
          "type": {
            "id": 1,
            "name": "Official Page"
          },
          "language": {
            "id": 1,
            "name": "English",
            "code": "en"
          }
        }
      ],
      "vidURLs": [
        {
          "priority": 10,
          "source": "www.youtube.com",
          "publisher": null,
          "title": "Space Development Agency’s Second Tranche 0 Mission",
          "description": "On Saturday, September 2 at 7:25 a.m. PT, SpaceX launched the Space Development Agency’s second Tranche 0 mission to low-Earth orbit from Space Launch Comple...",
          "feature_image": "https://i.ytimg.com/vi/JBeJVN-0t2I/maxresdefault.jpg",
          "url": "https://www.youtube.com/watch?v=JBeJVN-0t2I",
          "type": {
            "id": 1,
            "name": "Official Webcast"
          },
          "language": {
            "id": 1,
            "name": "English",
            "code": "en"
          },
          "start_time": null,
          "end_time": null
        }
      ],
      "webcast_live": false,
      "timeline": [],
      "image": "https://thespacedevs-prod.nyc3.digitaloceanspaces.com/media/images/falcon2520925_image_20230830192938.jpeg",
      "infographic": null,
      "program": [],
      "orbital_launch_attempt_count": 6508,
      "location_launch_attempt_count": 727,
      "pad_launch_attempt_count": 118,
      "agency_launch_attempt_count": 275,
      "orbital_launch_attempt_count_year": 140,
      "location_launch_attempt_count_year": 18,
      "pad_launch_attempt_count_year": 18,
      "agency_launch_attempt_count_year": 62,
      "pad_turnaround": "P11DT4H47M30S",
      "mission_patches": [
        {
          "id": 871,
          "name": "=SDA-Tranche0B",
          "priority": 10,
          "image_url": "https://thespacedevs-prod.nyc3.digitaloceanspaces.com/media/mission_patch_images/253dsda-tranch_mission_patch_20230830193133.png",
          "agency": {
            "id": 121,
            "url": "https://ll.thespacedevs.com/2.2.0/agencies/121/?format=json",
            "name": "SpaceX",
            "type": "Commercial"
          }
        }
      ],
      "type": "detailed"
    }
  ]
}